{
    "boiler": {
        "top": 180,
        "sub": 139,
        "inner": {
            "gauge": {
                "min": 0,
                "max": 100,
                "current": 53,
                "threshold": 75
            },
            "high": {
                "light": "off",
                "value": 3
            },
            "medium": {
                "light": "on",
                "value": 153
            },
            "low": {
                "light": "on",
                "value": 134
            }
        }
    },
    "pumps": {
        "name": "1",
        "p1": {
            "status": "ok",
            "state": "auto"
        },
        "p2": {
            "status": "normal",
            "state": "auto"
        },
        "output": {
            "m3": 41,
            "pressure": "1.80"
        }
    }
}